\relax 
\providecommand\hyper@newdestlabel[2]{}
\providecommand\HyperFirstAtBeginDocument{\AtBeginDocument}
\HyperFirstAtBeginDocument{\ifx\hyper@anchor\@undefined
\global\let\oldcontentsline\contentsline
\gdef\contentsline#1#2#3#4{\oldcontentsline{#1}{#2}{#3}}
\global\let\oldnewlabel\newlabel
\gdef\newlabel#1#2{\newlabelxx{#1}#2}
\gdef\newlabelxx#1#2#3#4#5#6{\oldnewlabel{#1}{{#2}{#3}}}
\AtEndDocument{\ifx\hyper@anchor\@undefined
\let\contentsline\oldcontentsline
\let\newlabel\oldnewlabel
\fi}
\fi}
\global\let\hyper@last\relax 
\gdef\HyperFirstAtBeginDocument#1{#1}
\providecommand\HyField@AuxAddToFields[1]{}
\providecommand\HyField@AuxAddToCoFields[2]{}
\newlabel{Eq. result of case1}{{5}{1}{}{equation.0.5}{}}
\newlabel{Eq. result of case2}{{6}{1}{}{equation.0.6}{}}
\newlabel{Eq. Planck's Law}{{7}{1}{}{equation.0.7}{}}
\newlabel{Eq. off result of case1}{{8}{1}{}{equation.0.8}{}}
\newlabel{Eq. off result of case2}{{9}{1}{}{equation.0.9}{}}
\newlabel{Eq. result approx}{{14}{2}{}{equation.0.14}{}}
\newlabel{Eq. off result approx}{{15}{2}{}{equation.0.15}{}}
\newlabel{Eq. T tau}{{17}{2}{}{equation.0.17}{}}
\newlabel{Eq. First Eq}{{30}{3}{}{equation.0.30}{}}
