\contentsline {section}{\numberline {0}EXPERIMENTS}{2}{section.0}
\contentsline {section}{\numberline {1}FROM ATOMS TO MOLECULES}{2}{section.1}
\contentsline {subsection}{\numberline {1.1}Atoms: Hydrogen-like atoms}{2}{subsection.1.1}
\contentsline {subsection}{\numberline {1.2}Molecules: \mhchem@ce@xiii {\noexpand H\noexpand 2\noexpand ^\noexpand +}-like molecules}{2}{subsection.1.2}
\contentsline {subsection}{\numberline {1.3}LCAO: Approach to Molecular Wavefunctions}{3}{subsection.1.3}
