\relax 
\providecommand\hyper@newdestlabel[2]{}
\providecommand\HyperFirstAtBeginDocument{\AtBeginDocument}
\HyperFirstAtBeginDocument{\ifx\hyper@anchor\@undefined
\global\let\oldcontentsline\contentsline
\gdef\contentsline#1#2#3#4{\oldcontentsline{#1}{#2}{#3}}
\global\let\oldnewlabel\newlabel
\gdef\newlabel#1#2{\newlabelxx{#1}#2}
\gdef\newlabelxx#1#2#3#4#5#6{\oldnewlabel{#1}{{#2}{#3}}}
\AtEndDocument{\ifx\hyper@anchor\@undefined
\let\contentsline\oldcontentsline
\let\newlabel\oldnewlabel
\fi}
\fi}
\global\let\hyper@last\relax 
\gdef\HyperFirstAtBeginDocument#1{#1}
\providecommand\HyField@AuxAddToFields[1]{}
\providecommand\HyField@AuxAddToCoFields[2]{}
\@writefile{toc}{\contentsline {section}{\numberline {0}EXPERIMENTS}{2}{section.0}}
\@writefile{toc}{\contentsline {section}{\numberline {1}FROM ATOMS TO MOLECULES}{2}{section.1}}
\@writefile{toc}{\contentsline {subsection}{\numberline {1.1}Atoms: Hydrogen-like atoms}{2}{subsection.1.1}}
\@writefile{toc}{\contentsline {subsection}{\numberline {1.2}Molecules: \mhchem@ce@xiii  {\noexpand H\noexpand 2\noexpand ^\noexpand +}-like molecules}{2}{subsection.1.2}}
\@writefile{toc}{\contentsline {subsection}{\numberline {1.3}LCAO: Approach to Molecular Wavefunctions}{3}{subsection.1.3}}
\newlabel{Eq. E(c1,c2)}{{{1}.{30}}{3}{LCAO: Approach to Molecular Wavefunctions}{equation.1.30}{}}
\newlabel{Eq. laco coef eq a}{{{1}.{35}}{3}{LCAO: Approach to Molecular Wavefunctions}{equation.1.35}{}}
\newlabel{Eq. laco coef eq b}{{{1}.{36}}{3}{LCAO: Approach to Molecular Wavefunctions}{equation.1.36}{}}
