\relax 
\providecommand\hyper@newdestlabel[2]{}
\providecommand\HyperFirstAtBeginDocument{\AtBeginDocument}
\HyperFirstAtBeginDocument{\ifx\hyper@anchor\@undefined
\global\let\oldcontentsline\contentsline
\gdef\contentsline#1#2#3#4{\oldcontentsline{#1}{#2}{#3}}
\global\let\oldnewlabel\newlabel
\gdef\newlabel#1#2{\newlabelxx{#1}#2}
\gdef\newlabelxx#1#2#3#4#5#6{\oldnewlabel{#1}{{#2}{#3}}}
\AtEndDocument{\ifx\hyper@anchor\@undefined
\let\contentsline\oldcontentsline
\let\newlabel\oldnewlabel
\fi}
\fi}
\global\let\hyper@last\relax 
\gdef\HyperFirstAtBeginDocument#1{#1}
\providecommand\HyField@AuxAddToFields[1]{}
\providecommand\HyField@AuxAddToCoFields[2]{}
\@writefile{toc}{\contentsline {section}{\numberline {1}INTERSTELLAR MEDIUM}{2}{section.1}}
\@writefile{toc}{\contentsline {subsection}{\numberline {1.1}Structure of ISM, Energy levels}{2}{subsection.1.1}}
\@writefile{toc}{\contentsline {subsubsection}{\numberline {1.1.1}Components of ISM}{2}{subsubsection.1.1.1}}
\@writefile{lot}{\contentsline {table}{\numberline {1}{\ignorespaces Phases of Interstellar Gas}}{2}{table.1}}
\newlabel{Tab. Phases of Interstellar Gas}{{1}{2}{Phases of Interstellar Gas}{table.1}{}}
\@writefile{toc}{\contentsline {subsubsection}{\numberline {1.1.2}Collision Process}{2}{subsubsection.1.1.2}}
\@writefile{toc}{\contentsline {paragraph}{The Impact Approximation}{2}{section*.2}}
\newlabel{Eq. Impact Approx.}{{{1}.{14}}{2}{The Impact Approximation}{equation.1.14}{}}
\@writefile{toc}{\contentsline {paragraph}{Example: Collision Ionization}{2}{section*.3}}
\@writefile{toc}{\contentsline {subsection}{\numberline {1.2}Emission and Absorption, Radiative Transfer}{3}{subsection.1.2}}
\@writefile{toc}{\contentsline {subsubsection}{\numberline {1.2.1}Molecular Energy Levels}{3}{subsubsection.1.2.1}}
\@writefile{toc}{\contentsline {paragraph}{Molecular Vibration}{3}{section*.4}}
\@writefile{toc}{\contentsline {paragraph}{Molecular Rotation}{3}{section*.5}}
\@writefile{toc}{\contentsline {subsubsection}{\numberline {1.2.2}Emission and Absorption Processes}{3}{subsubsection.1.2.2}}
\@writefile{toc}{\contentsline {subsubsection}{\numberline {1.2.3}Radiative Transfer}{3}{subsubsection.1.2.3}}
\newlabel{Eq. Specific Intensity}{{{1}.{37}}{3}{Radiative Transfer}{equation.1.37}{}}
\@writefile{toc}{\contentsline {subsection}{\numberline {1.3}Continuum Radiation Process}{4}{subsection.1.3}}
\@writefile{toc}{\contentsline {subsection}{\numberline {1.4}Fluid Dynamics, Shocks and SNRs}{4}{subsection.1.4}}
\@writefile{toc}{\contentsline {subsection}{\numberline {1.5}Shocks, SNRs, HII regions and PDRs}{4}{subsection.1.5}}
\@writefile{toc}{\contentsline {section}{\numberline {2}STAR FORMATION}{4}{section.2}}
\@writefile{toc}{\contentsline {subsection}{\numberline {2.1}Molecular Clouds}{4}{subsection.2.1}}
